<svg xmlns="http://www.w3.org/2000/svg" width="100%" height="100%" viewBox="0 0 15 11">
  <title>Check</title>
  <path fill-rule="evenodd" d="M5.099 11h-.013a1.178 1.178 0 0 1-.841-.36L.3 6.497A1.063 1.063 0 0 1 .38 4.944a1.194 1.194 0 0 1 1.629.075l3.11 3.263 7.89-7.939A1.195 1.195 0 0 1 14.64.301c.462.418.482 1.115.044 1.556l-8.748 8.8A1.18 1.18 0 0 1 5.1 11"/>
</svg>
