<svg xmlns="http://www.w3.org/2000/svg" width="100%" height="100%" viewBox="0 0 13 14">
  <title>Local</title>
  <path fill-rule="evenodd" d="M10.44 4.07V.751H8.171v1.053L6.368 0 0 6.368l.425.426.696-.696v5.152c0 1.21.985 2.195 2.195 2.195h1.589V8.619c0-.9.658-1.631 1.463-1.631.806 0 1.463.731 1.463 1.631v4.826h1.591c1.21 0 2.194-.985 2.194-2.195V6.098l.695.696.426-.426-2.298-2.298z"/>
</svg>
